[
  {
    "model": "specialty",
    "items": [
      {"name": "Médico no especialista"},
      {"name": "Alergología"},
      {"name": "Anestesiología"},
      {"name": "Cardiología"},
      {"name": "Gastroenterología"},
      {"name": "Endocrinología"},
      {"name": "Geriatría"},
      {"name": "Hematología y hemoterapia"},
      {"name": "Infectología"},
      {"name": "Medicina aeroespacial "},
      {"name": "Medicina del deporte"},
      {"name": "Medicina del trabajo"},
      {"name": "Medicina de urgencias"},
      {"name": "Medifina familiar y comunitaria"},
      {"name": "Medicina física y rehabilitación"},
      {"name": "Medicina intensiva"},
      {"name": "Medicina interna"},
      {"name": "Medicina preventiva y salud pública"},
      {"name": "Nefrología"},
      {"name": "Neumología"},
      {"name": "Neurología"},
      {"name": "Nutriología"},
      {"name": "Odontología"},
      {"name": "Oftalmología"},
      {"name": "Oncología médica"},
      {"name": "Oncología radioterápica"},
      {"name": "Otorrinolaringología"},
      {"name": "Pediatría"},
      {"name": "Proctología"},
      {"name": "Psiquiatría"},
      {"name": "Rehabilitación"},
      {"name": "Reumatología"},
      {"name": "Traumatología"},
      {"name": "Toxicología"},
      {"name": "Urología"},
      {"name": "Cirugía cardiovascular"},
      {"name": "Cirugía general y del aparato digestivo"},
      {"name": "Cirugía oral y maxilofacial"},
      {"name": "Cirugía ortopédica y traumatología"},
      {"name": "Cirugía pediátrica"},
      {"name": "Cirugía plástica, estética y reparadora"},
      {"name": "Cirugía torácica"},
      {"name": "Neurocirugía"},
      {"name": "Angiología y cirugía vascular"},
      {"name": "Dermatología médico-quirúrgica y venereología"},
      {"name": "Ginecología y obstetricia o tocología"},
      {"name": "Oftalmología"},
      {"name": "Otorrinolaringología"},
      {"name": "Urología"}
    ]
  }
]
